{
	"searchFacets":[
		{
			"type": "custom",
			"id": "teamnotification",
			"name": "teamnotification",
			"booleanClause":"(+ddmStructureKey:[$CCM-TEAM-NOTIFICATION$] +latest:true +status:0 +groupId:[$GROUP_ID$])",
			"entryClassName" : "com.liferay.journal.model.JournalArticle",
			"fieldName" : "entryClassPK",
			"labels" : [
				{
					"languageId": "en_GB",
					"value": "Team Notifications"
				}
			],
			"fieldName_sortable" : "createDate_sortable",
			"fieldName_sortable_reverse" : true
		}
	]
}