{
	"settings":{ 
		"coloursBackground":[
			{
				"field":"status",
				"values":{
					"approved":"#00703C",
					"submitted":"#00703C",
					"closed":"#D4351C",
					"pending":"#31708f",
					"incomplete":"#ff8f39"
				}
			}
		]
	},
	"searchFacets":[
		{
			"type": "custom",
			"id": "enquiry",
			"name": "enquiry",
			"booleanClause": "(-type:[$TYPE1$] -type:[$TYPE2$] +groupId:[$GROUP_ID$])",
			"displayTotalResult" : true,
			"entryClassName" : "com.placecube.digitalplace.customercontactmanagement.model.Enquiry",
			"fieldName" : "entryClassPK",
			"iterable": true,
			"labels" : [
				{
					"languageId": "en_GB",
					"value": "Cases"
				}
			],
			"fieldName_sortable" : "createDate_sortable",
			"fieldName_sortable_reverse" : true,
			"fields":[
				{
					"field": "caseRef",
					"labels": [
						{
							"languageId": "en_GB",
							"value": "Ref."
						}
					],
				  	"fontWeight": "600",
					"clickable" : {
						"field": "caseRef",
                        "regex": "^(?![0]$)[\\S]*$"
					},
					"data": [
						{
							"key": "entry_class_pk",
							"value": "entryClassPK"
						},
						{
							"key": "language_key_0",
							"value": "caseRef"
						},
						{
							"key": "language_key_1",
							"value": "status"
						}
					]
				},
				{
					"field": "ownerUserName",
					"labels": [
						{
							"languageId": "en_GB",
							"value": "CSA"
						}
					]
				},
				{
					"field":"userName",
					"labels": [
						{
							"languageId": "en_GB",
							"value": "Customer"
						}
					],
					"clickable" : {
						"field": "userName",
						"regex": "^.*$"
					},
					"data": [
						{
							"key": "user_id",
							"value": "userId"
						}
					]
				},
				{
					"field": "2level",
					"labels": [
						{
							"languageId": "en_GB",
							"value": "Service Area"
						}
					]
				},
				{
					"field":"3level",
					"labels": [
						{
							"languageId": "en_GB",
							"value": "Service"
						}
					]
				},
				{
					"field": "status",
					"labels": [
						{
							"languageId": "en_GB",
							"value": "Status"
						}
					]
				},
				{
					"field": "channel",
					"labels": [
						{
							"languageId": "en_GB",
							"value": "Channel"
						}
					]
				},
				{
					"field": "type",
					"labels": [
						{
							"languageId": "en_GB",
							"value": "Type"
						}
					]
				},
				{
					"field": "createDate",
					"displayAsDate": true,
					"labels": [
						{
							"languageId": "en_GB",
							"value": "Date submitted"
						}
					]
				}
			],
			"showMoreLess": true
		}
	]
}